…
Introduction

Although metacoder and taxa have been designed for use with taxonomic data, any data that can be assigned to a hierarchy can be used. To demonstrate this, we have used metacoder to display the results of the 2016 Democratic primary election.

Read in data

We will use the readr package to read in the data. You can download the data here.

raw_data <- read_csv("primary_results.csv")
raw_data

## # A tibble: 24,611 x 11
##    state  state_abbreviat county  fips party candidate votes fraction_votes division region country
##    <chr>  <chr>            <chr>  <dbl> <chr> <chr>     <dbl>          <dbl> <chr>    <chr>  <chr>  
##  1 Alaba AL               Autau  1001 Demo Bernie S   544          0.182 SE Cent South  USA    
##  2 Alaba AL               Autau  1001 Demo Hillary   2387          0.8   SE Cent South  USA    
##  3 Alaba AL               Baldw  1003 Demo Bernie S  2694          0.329 SE Cent South  USA    
##  4 Alaba AL               Baldw  1003 Demo Hillary   5290          0.647 SE Cent South  USA    
##  5 Alaba AL               Barbo  1005 Demo Bernie S   222          0.078 SE Cent South  USA    
##  6 Alaba AL               Barbo  1005 Demo Hillary   2567          0.906 SE Cent South  USA    
##  7 Alaba AL               Bibb    1007 Demo Bernie S   246          0.197 SE Cent South  USA    
##  8 Alaba AL               Bibb    1007 Demo Hillary    942          0.755 SE Cent South  USA    
##  9 Alaba AL               Blount  1009 Demo Bernie S   395          0.386 SE Cent South  USA    
## 10 Alaba AL               Blount  1009 Demo Hillary    564          0.551 SE Cent South  USA    
## #  with 24,601 more rows
…
